R4DS
…
library(Lahman)

flights |>
    filter(dest == "IAH") |>
    group_by(year, month, day) |>
    summarize(
        arr_delay = mean(arr_delay, na.rm=TRUE)
    )

`summarise()` has grouped output by 'year', 'month'. You can override using the
`.groups` argument.

# A tibble: 365 × 4
# Groups:   year, month [12]
    year month   day arr_delay
   <int> <int> <int>     <dbl>
 1  2013     1     1     17.8 
 2  2013     1     2      7   
 3  2013     1     3     18.3 
 4  2013     1     4     -3.2 
 5  2013     1     5     20.2 
 6  2013     1     6      9.28
 7  2013     1     7     -7.74
 8  2013     1     8      7.79
 9  2013     1     9     18.1 
10  2013     1    10      6.68
# … with 355 more rows

flights %>%
    filter(dep_delay>120)

# A tibble: 9,723 × 19
    year month   day dep_time sched_de…¹ dep_d…² arr_t…³ sched…⁴ arr_d…⁵ carrier
   <int> <int> <int>    <int>      <int>   <dbl>   <int>   <int>   <dbl> <chr>  
 1  2013     1     1      848       1835     853    1001    1950     851 MQ     
 2  2013     1     1      957        733     144    1056     853     123 UA     
 3  2013     1     1     1114        900     134    1447    1222     145 UA     
 4  2013     1     1     1540       1338     122    2020    1825     115 B6     
 5  2013     1     1     1815       1325     290    2120    1542     338 EV     
 6  2013     1     1     1842       1422     260    1958    1535     263 EV     
 7  2013     1     1     1856       1645     131    2212    2005     127 AA     
 8  2013     1     1     1934       1725     129    2126    1855     151 MQ     
 9  2013     1     1     1938       1703     155    2109    1823     166 EV     
10  2013     1     1     1942       1705     157    2124    1830     174 MQ     
# … with 9,713 more rows, 9 more variables: flight <int>, tailnum <chr>,
#   origin <chr>, dest <chr>, air_time <dbl>, distance <dbl>, hour <dbl>,
#   minute <dbl>, time_hour <dttm>, and abbreviated variable names
#   ¹​sched_dep_time, ²​dep_delay, ³​arr_time, ⁴​sched_arr_time, ⁵​arr_delay

flights |>
    filter(month==1 | month==2)

# A tibble: 51,955 × 19
    year month   day dep_time sched_de…¹ dep_d…² arr_t…³ sched…⁴ arr_d…⁵ carrier
   <int> <int> <int>    <int>      <int>   <dbl>   <int>   <int>   <dbl> <chr>  
 1  2013     1     1      517        515       2     830     819      11 UA     
 2  2013     1     1      533        529       4     850     830      20 UA     
 3  2013     1     1      542        540       2     923     850      33 AA     
 4  2013     1     1      544        545      -1    1004    1022     -18 B6     
 5  2013     1     1      554        600      -6     812     837     -25 DL     
 6  2013     1     1      554        558      -4     740     728      12 UA     
 7  2013     1     1      555        600      -5     913     854      19 B6     
 8  2013     1     1      557        600      -3     709     723     -14 EV     
 9  2013     1     1      557        600      -3     838     846      -8 B6     
10  2013     1     1      558        600      -2     753     745       8 AA     
# … with 51,945 more rows, 9 more variables: flight <int>, tailnum <chr>,
#   origin <chr>, dest <chr>, air_time <dbl>, distance <dbl>, hour <dbl>,
#   minute <dbl>, time_hour <dttm>, and abbreviated variable names
#   ¹​sched_dep_time, ²​dep_delay, ³​arr_time, ⁴​sched_arr_time, ⁵​arr_delay

flights |>
    filter(month %in% c(1,2))

# A tibble: 51,955 × 19
    year month   day dep_time sched_de…¹ dep_d…² arr_t…³ sched…⁴ arr_d…⁵ carrier
   <int> <int> <int>    <int>      <int>   <dbl>   <int>   <int>   <dbl> <chr>  
 1  2013     1     1      517        515       2     830     819      11 UA     
 2  2013     1     1      533        529       4     850     830      20 UA     
 3  2013     1     1      542        540       2     923     850      33 AA     
 4  2013     1     1      544        545      -1    1004    1022     -18 B6     
 5  2013     1     1      554        600      -6     812     837     -25 DL     
 6  2013     1     1      554        558      -4     740     728      12 UA     
 7  2013     1     1      555        600      -5     913     854      19 B6     
 8  2013     1     1      557        600      -3     709     723     -14 EV     
 9  2013     1     1      557        600      -3     838     846      -8 B6     
10  2013     1     1      558        600      -2     753     745       8 AA     
# … with 51,945 more rows, 9 more variables: flight <int>, tailnum <chr>,
#   origin <chr>, dest <chr>, air_time <dbl>, distance <dbl>, hour <dbl>,
#   minute <dbl>, time_hour <dttm>, and abbreviated variable names
#   ¹​sched_dep_time, ²​dep_delay, ³​arr_time, ⁴​sched_arr_time, ⁵​arr_delay

jan1 <- flights |>
    filter(month==1 & day==1)
jan1

# A tibble: 842 × 19
    year month   day dep_time sched_de…¹ dep_d…² arr_t…³ sched…⁴ arr_d…⁵ carrier
   <int> <int> <int>    <int>      <int>   <dbl>   <int>   <int>   <dbl> <chr>  
 1  2013     1     1      517        515       2     830     819      11 UA     
 2  2013     1     1      533        529       4     850     830      20 UA     
 3  2013     1     1      542        540       2     923     850      33 AA     
 4  2013     1     1      544        545      -1    1004    1022     -18 B6     
 5  2013     1     1      554        600      -6     812     837     -25 DL     
 6  2013     1     1      554        558      -4     740     728      12 UA     
 7  2013     1     1      555        600      -5     913     854      19 B6     
 8  2013     1     1      557        600      -3     709     723     -14 EV     
 9  2013     1     1      557        600      -3     838     846      -8 B6     
10  2013     1     1      558        600      -2     753     745       8 AA     
# … with 832 more rows, 9 more variables: flight <int>, tailnum <chr>,
#   origin <chr>, dest <chr>, air_time <dbl>, distance <dbl>, hour <dbl>,
#   minute <dbl>, time_hour <dttm>, and abbreviated variable names
#   ¹​sched_dep_time, ²​dep_delay, ³​arr_time, ⁴​sched_arr_time, ⁵​arr_delay

flights |>
    arrange(year, month, day, dep_time)

# A tibble: 336,776 × 19
    year month   day dep_time sched_de…¹ dep_d…² arr_t…³ sched…⁴ arr_d…⁵ carrier
   <int> <int> <int>    <int>      <int>   <dbl>   <int>   <int>   <dbl> <chr>  
 1  2013     1     1      517        515       2     830     819      11 UA     
 2  2013     1     1      533        529       4     850     830      20 UA     
 3  2013     1     1      542        540       2     923     850      33 AA     
 4  2013     1     1      544        545      -1    1004    1022     -18 B6     
 5  2013     1     1      554        600      -6     812     837     -25 DL     
 6  2013     1     1      554        558      -4     740     728      12 UA     
 7  2013     1     1      555        600      -5     913     854      19 B6     
 8  2013     1     1      557        600      -3     709     723     -14 EV     
 9  2013     1     1      557        600      -3     838     846      -8 B6     
10  2013     1     1      558        600      -2     753     745       8 AA     
# … with 336,766 more rows, 9 more variables: flight <int>, tailnum <chr>,
#   origin <chr>, dest <chr>, air_time <dbl>, distance <dbl>, hour <dbl>,
#   minute <dbl>, time_hour <dttm>, and abbreviated variable names
#   ¹​sched_dep_time, ²​dep_delay, ³​arr_time, ⁴​sched_arr_time, ⁵​arr_delay

flights |>
    arrange(desc(dep_delay))

# A tibble: 336,776 × 19
    year month   day dep_time sched_de…¹ dep_d…² arr_t…³ sched…⁴ arr_d…⁵ carrier
   <int> <int> <int>    <int>      <int>   <dbl>   <int>   <int>   <dbl> <chr>  
 1  2013     1     9      641        900    1301    1242    1530    1272 HA     
 2  2013     6    15     1432       1935    1137    1607    2120    1127 MQ     
 3  2013     1    10     1121       1635    1126    1239    1810    1109 MQ     
 4  2013     9    20     1139       1845    1014    1457    2210    1007 AA     
 5  2013     7    22      845       1600    1005    1044    1815     989 MQ     
 6  2013     4    10     1100       1900     960    1342    2211     931 DL     
 7  2013     3    17     2321        810     911     135    1020     915 DL     
 8  2013     6    27      959       1900     899    1236    2226     850 DL     
 9  2013     7    22     2257        759     898     121    1026     895 DL     
10  2013    12     5      756       1700     896    1058    2020     878 AA     
# … with 336,766 more rows, 9 more variables: flight <int>, tailnum <chr>,
#   origin <chr>, dest <chr>, air_time <dbl>, distance <dbl>, hour <dbl>,
#   minute <dbl>, time_hour <dttm>, and abbreviated variable names
#   ¹​sched_dep_time, ²​dep_delay, ³​arr_time, ⁴​sched_arr_time, ⁵​arr_delay

flights |>
    distinct(origin, dest, .keep_all = TRUE)

# A tibble: 224 × 19
    year month   day dep_time sched_de…¹ dep_d…² arr_t…³ sched…⁴ arr_d…⁵ carrier
   <int> <int> <int>    <int>      <int>   <dbl>   <int>   <int>   <dbl> <chr>  
 1  2013     1     1      517        515       2     830     819      11 UA     
 2  2013     1     1      533        529       4     850     830      20 UA     
 3  2013     1     1      542        540       2     923     850      33 AA     
 4  2013     1     1      544        545      -1    1004    1022     -18 B6     
 5  2013     1     1      554        600      -6     812     837     -25 DL     
 6  2013     1     1      554        558      -4     740     728      12 UA     
 7  2013     1     1      555        600      -5     913     854      19 B6     
 8  2013     1     1      557        600      -3     709     723     -14 EV     
 9  2013     1     1      557        600      -3     838     846      -8 B6     
10  2013     1     1      558        600      -2     753     745       8 AA     
# … with 214 more rows, 9 more variables: flight <int>, tailnum <chr>,
#   origin <chr>, dest <chr>, air_time <dbl>, distance <dbl>, hour <dbl>,
#   minute <dbl>, time_hour <dttm>, and abbreviated variable names
#   ¹​sched_dep_time, ²​dep_delay, ³​arr_time, ⁴​sched_arr_time, ⁵​arr_delay

flights |>
    count(origin, dest, sort=TRUE)

# A tibble: 224 × 3
   origin dest      n
   <chr>  <chr> <int>
 1 JFK    LAX   11262
 2 LGA    ATL   10263
 3 LGA    ORD    8857
 4 JFK    SFO    8204
 5 LGA    CLT    6168
 6 EWR    ORD    6100
 7 JFK    BOS    5898
 8 LGA    MIA    5781
 9 JFK    MCO    5464
10 EWR    BOS    5327
# … with 214 more rows

Stopped at Section 4.3 Columns

flights |>
  mutate(
    gain = dep_delay - arr_delay,
    speed = distance / air_time *60,
    .before = 1
  )

# A tibble: 336,776 × 21
    gain speed  year month   day dep_t…¹ sched…² dep_d…³ arr_t…⁴ sched…⁵ arr_d…⁶
   <dbl> <dbl> <int> <int> <int>   <int>   <int>   <dbl>   <int>   <int>   <dbl>
 1    -9  370.  2013     1     1     517     515       2     830     819      11
 2   -16  374.  2013     1     1     533     529       4     850     830      20
 3   -31  408.  2013     1     1     542     540       2     923     850      33
 4    17  517.  2013     1     1     544     545      -1    1004    1022     -18
 5    19  394.  2013     1     1     554     600      -6     812     837     -25
 6   -16  288.  2013     1     1     554     558      -4     740     728      12
 7   -24  404.  2013     1     1     555     600      -5     913     854      19
 8    11  259.  2013     1     1     557     600      -3     709     723     -14
 9     5  405.  2013     1     1     557     600      -3     838     846      -8
10   -10  319.  2013     1     1     558     600      -2     753     745       8
# … with 336,766 more rows, 10 more variables: carrier <chr>, flight <int>,
#   tailnum <chr>, origin <chr>, dest <chr>, air_time <dbl>, distance <dbl>,
#   hour <dbl>, minute <dbl>, time_hour <dttm>, and abbreviated variable names
#   ¹​dep_time, ²​sched_dep_time, ³​dep_delay, ⁴​arr_time, ⁵​sched_arr_time,
#   ⁶​arr_delay

flights |>
  mutate(
    gain = dep_delay - arr_delay,
    speed = distance / air_time *60,
    .keep = "used"
  )

# A tibble: 336,776 × 6
   dep_delay arr_delay air_time distance  gain speed
       <dbl>     <dbl>    <dbl>    <dbl> <dbl> <dbl>
 1         2        11      227     1400    -9  370.
 2         4        20      227     1416   -16  374.
 3         2        33      160     1089   -31  408.
 4        -1       -18      183     1576    17  517.
 5        -6       -25      116      762    19  394.
 6        -4        12      150      719   -16  288.
 7        -5        19      158     1065   -24  404.
 8        -3       -14       53      229    11  259.
 9        -3        -8      140      944     5  405.
10        -2         8      138      733   -10  319.
# … with 336,766 more rows

flights |>
  select(year, month, day)

# A tibble: 336,776 × 3
    year month   day
   <int> <int> <int>
 1  2013     1     1
 2  2013     1     1
 3  2013     1     1
 4  2013     1     1
 5  2013     1     1
 6  2013     1     1
 7  2013     1     1
 8  2013     1     1
 9  2013     1     1
10  2013     1     1
# … with 336,766 more rows

flights |>
  select(tail_num = tailnum)

# A tibble: 336,776 × 1
   tail_num
   <chr>   
 1 N14228  
 2 N24211  
 3 N619AA  
 4 N804JB  
 5 N668DN  
 6 N39463  
 7 N516JB  
 8 N829AS  
 9 N593JB  
10 N3ALAA  
# … with 336,766 more rows

flights |>
  select(ends_with("delay"))

# A tibble: 336,776 × 2
   dep_delay arr_delay
       <dbl>     <dbl>
 1         2        11
 2         4        20
 3         2        33
 4        -1       -18
 5        -6       -25
 6        -4        12
 7        -5        19
 8        -3       -14
 9        -3        -8
10        -2         8
# … with 336,766 more rows

The pipe

flights |>
  filter(dest == "IAH") |>
  mutate(speed = distance / air_time * 60) |>
  select(year:day, dep_time, carrier, flight, speed) |>
  arrange(desc(speed))

# A tibble: 7,198 × 7
    year month   day dep_time carrier flight speed
   <int> <int> <int>    <int> <chr>    <int> <dbl>
 1  2013     7     9      707 UA         226  522.
 2  2013     8    27     1850 UA        1128  521.
 3  2013     8    28      902 UA        1711  519.
 4  2013     8    28     2122 UA        1022  519.
 5  2013     6    11     1628 UA        1178  515.
 6  2013     8    27     1017 UA         333  515.
 7  2013     8    27     1205 UA        1421  515.
 8  2013     8    27     1758 UA         302  515.
 9  2013     9    27      521 UA         252  515.
10  2013     8    28      625 UA         559  515.
# … with 7,188 more rows
…
# A tibble: 3 × 2
    cyl     n
  <dbl> <int>
1     4    11
2     6     7
3     8    14

Groups

flights |> 
  group_by(month)

# A tibble: 336,776 × 19
# Groups:   month [12]
    year month   day dep_time sched_de…¹ dep_d…² arr_t…³ sched…⁴ arr_d…⁵ carrier
   <int> <int> <int>    <int>      <int>   <dbl>   <int>   <int>   <dbl> <chr>  
 1  2013     1     1      517        515       2     830     819      11 UA     
 2  2013     1     1      533        529       4     850     830      20 UA     
 3  2013     1     1      542        540       2     923     850      33 AA     
 4  2013     1     1      544        545      -1    1004    1022     -18 B6     
 5  2013     1     1      554        600      -6     812     837     -25 DL     
 6  2013     1     1      554        558      -4     740     728      12 UA     
 7  2013     1     1      555        600      -5     913     854      19 B6     
 8  2013     1     1      557        600      -3     709     723     -14 EV     
 9  2013     1     1      557        600      -3     838     846      -8 B6     
10  2013     1     1      558        600      -2     753     745       8 AA     
# … with 336,766 more rows, 9 more variables: flight <int>, tailnum <chr>,
#   origin <chr>, dest <chr>, air_time <dbl>, distance <dbl>, hour <dbl>,
#   minute <dbl>, time_hour <dttm>, and abbreviated variable names
#   ¹​sched_dep_time, ²​dep_delay, ³​arr_time, ⁴​sched_arr_time, ⁵​arr_delay
…
flights |> 
  group_by(dest) |> 
  slice_max(arr_delay, n = 1) |> 
  relocate(dest)

# A tibble: 108 × 19
# Groups:   dest [105]
   dest   year month   day dep_time sched_dep_…¹ dep_d…² arr_t…³ sched…⁴ arr_d…⁵
   <chr> <int> <int> <int>    <int>        <int>   <dbl>   <int>   <int>   <dbl>
 1 ABQ    2013     7    22     2145         2007      98     132    2259     153
 2 ACK    2013     7    23     1139          800     219    1250     909     221
 3 ALB    2013     1    25      123         2000     323     229    2101     328
 4 ANC    2013     8    17     1740         1625      75    2042    2003      39
 5 ATL    2013     7    22     2257          759     898     121    1026     895
 6 AUS    2013     7    10     2056         1505     351    2347    1758     349
 7 AVL    2013     8    13     1156          832     204    1417    1029     228
 8 BDL    2013     2    21     1728         1316     252    1839    1413     266
 9 BGR    2013    12     1     1504         1056     248    1628    1230     238
10 BHM    2013     4    10       25         1900     325     136    2045     291
# … with 98 more rows, 9 more variables: carrier <chr>, flight <int>,
#   tailnum <chr>, origin <chr>, air_time <dbl>, distance <dbl>, hour <dbl>,
#   minute <dbl>, time_hour <dttm>, and abbreviated variable names
#   ¹​sched_dep_time, ²​dep_delay, ³​arr_time, ⁴​sched_arr_time, ⁵​arr_delay

daily <- flights |> 
  group_by(year, month, day)
daily

# A tibble: 336,776 × 19
# Groups:   year, month, day [365]
    year month   day dep_time sched_de…¹ dep_d…² arr_t…³ sched…⁴ arr_d…⁵ carrier
   <int> <int> <int>    <int>      <int>   <dbl>   <int>   <int>   <dbl> <chr>  
 1  2013     1     1      517        515       2     830     819      11 UA     
 2  2013     1     1      533        529       4     850     830      20 UA     
 3  2013     1     1      542        540       2     923     850      33 AA     
 4  2013     1     1      544        545      -1    1004    1022     -18 B6     
 5  2013     1     1      554        600      -6     812     837     -25 DL     
 6  2013     1     1      554        558      -4     740     728      12 UA     
 7  2013     1     1      555        600      -5     913     854      19 B6     
 8  2013     1     1      557        600      -3     709     723     -14 EV     
 9  2013     1     1      557        600      -3     838     846      -8 B6     
10  2013     1     1      558        600      -2     753     745       8 AA     
# … with 336,766 more rows, 9 more variables: flight <int>, tailnum <chr>,
#   origin <chr>, dest <chr>, air_time <dbl>, distance <dbl>, hour <dbl>,
#   minute <dbl>, time_hour <dttm>, and abbreviated variable names
#   ¹​sched_dep_time, ²​dep_delay, ³​arr_time, ⁴​sched_arr_time, ⁵​arr_delay

daily_flights <- daily |> 
  summarize(n = n(),
            .groups = "drop_last")
daily_flights

# A tibble: 365 × 4
# Groups:   year, month [12]
    year month   day     n
   <int> <int> <int> <int>
 1  2013     1     1   842
 2  2013     1     2   943
 3  2013     1     3   914
 4  2013     1     4   915
 5  2013     1     5   720
 6  2013     1     6   832
 7  2013     1     7   933
 8  2013     1     8   899
 9  2013     1     9   902
10  2013     1    10   932
# … with 355 more rows

Case study: aggregates and sample size

batters <- Lahman::Batting |> 
  group_by(playerID) |> 
  summarize(
    performance = sum(H, na.rm=TRUE) / sum(AB, na.rm=TRUE),
    n = sum(AB, na.rm=TRUE)
  )
batters

# A tibble: 20,469 × 3
   playerID  performance     n
   <chr>           <dbl> <int>
 1 aardsda01      0          4
 2 aaronha01      0.305  12364
 3 aaronto01      0.229    944
 4 aasedo01       0          5
 5 abadan01       0.0952    21
 6 abadfe01       0.111      9
 7 abadijo01      0.224     49
 8 abbated01      0.254   3044
 9 abbeybe01      0.169    225
10 abbeych01      0.281   1756
# … with 20,459 more rows
…
